graph G {
layout = neato;
overlap = false;
splines = true;
"0x3d70834954" -- "reorder\string_sorter";
"0x3d70c07aa1" -- "worker\string_thread";
"0x3d70c0f7e0" -- "dummy\string_signal\string_handler";
"0x7fa32a119ca6" -- "ap\string_check\string_cmd\string_context";
"0x7fa32a119f4e" -- "0x7fa32a119c20";
"0x7fa32a11a04f" -- "ap\string_hook\string_translate\string_name";
"0x7fa32a11a064" -- "ap\string_hook\string_fixups";
"0x7fa32a11a351" -- "0x7fa32a119620";
"0x7fa32a11a568" -- "0x7fa32a11a080";
"0x7fa32a11a7f9" -- "0x7fa32a11a230";
"0x7fa32a11a8b8" -- "0x7fa32a11a080";
"0x7fa32a11aa7d" -- "0x7fa32a11a230";
"0x7fa32a11ac4a" -- "0x7fa32a11a230";
"0x7fa32a31e574" -- "ap\string_getword\string_conf";
"0x7fa32a31e79f" -- "ap\string_sub\string_req\string_lookup\string_uri";
"0x7fa32a31ea99" -- "ap\string_internal\string_fast\string_redirect";
"0x7fa32a72b75a" -- "ap\string_mpm\string_query";
"0x7fa32a72b76b" -- "ap\string_mpm\string_query";
"0x7fa32a72b77c" -- "ap\string_mpm\string_query";
"0x7fa32a72b7a1" -- "ap\string_mpm\string_query";
"0x7fa32a72b7b2" -- "ap\string_mpm\string_query";
"0x7fa32a931537" -- "ap\string_check\string_cmd\string_context";
"0x7fa32a93157a" -- "ap\string_gname2id";
"0x7fa32a9315c7" -- "ap\string_check\string_cmd\string_context";
"0x7fa32a931609" -- "ap\string_uname2id";
"0x7fa32a931637" -- "ap\string_hook\string_pre\string_config";
"0x7fa32a931649" -- "ap\string_hook\string_test\string_config";
"0x7fa32a93165e" -- "ap\string_hook\string_drop\string_privileges";
"0x7fa32a93185c" -- "0x7fa32a931680";
"0x7fa32a931edf" -- "ap\string_gname2id";
"0x7fa32ab732ad" -- "0x7fa32ab7d180";
"0x7fa32ab732c2" -- "ap\string_hook\string_pre\string_connection";
"0x7fa32ab732d7" -- "ap\string_hook\string_process\string_connection";
"0x7fa32ab732ec" -- "ap\string_hook\string_test\string_config";
"0x7fa32ab73301" -- "ap\string_hook\string_post\string_config";
"0x7fa32ab7332b" -- "ap\string_hook\string_default\string_port";
"0x7fa32ab73355" -- "ap\string_hook\string_child\string_init";
"0x7fa32ab7336d" -- "ap\string_hook\string_check\string_authn";
"0x7fa32ab733b8" -- "ap\string_hook\string_check\string_authz";
"0x7fa32ab733d2" -- "ap\string_hook\string_post\string_read\string_request";
"0x7fa32ab735c9" -- "0x7fa32ab89d10";
"0x7fa32ab735d1" -- "0x7fa32ab8ce70";
"0x7fa32ab73603" -- "ap\string_mutex\string_register";
"0x7fa32ab7361c" -- "ap\string_mutex\string_register";
"0x7fa32ab7bf15" -- "0x7fa32ab78a40";
"0x7fa32ab7bf1d" -- "0x7fa32ab74fa0";
"0x7fa32ab7bf90" -- "0x7fa32ab90980";
"0x7fa32ab7bfa8" -- "ap\string_get\string_server\string_protocol";
"0x7fa32ab7bfb5" -- "ap\string_get\string_server\string_protocol";
"0x7fa32ab7c02c" -- "0x7fa32ab8fd70";
"0x7fa32ab7c037" -- "0x7fa32ab794b0";
"0x7fa32ab7c073" -- "ap\string_log\string_error\string_";
"0x7fa32ab7c08c" -- "0x7fa32ab898d0";
"0x7fa32ab7c097" -- "0x7fa32ab88690";
"0x7fa32ab7c0e8" -- "0x7fa32ab8fd20";
"0x7fa32ab7c0f3" -- "0x7fa32ab8d320";
"0x7fa32ab7c174" -- "0x7fa32ab7a930";
"0x7fa32ab7c262" -- "0x7fa32ab792a0";
"0x7fa32ab7c2ec" -- "0x7fa32ab8bec0";
"0x7fa32ab7c305" -- "0x7fa32ab8bec0";
"0x7fa32ab7c31e" -- "0x7fa32ab8bec0";
"0x7fa32ab7c32c" -- "ap\string_add\string_version\string_component";
"0x7fa32ab7c3bb" -- "0x7fa32ab918e0";
"0x7fa32ab7d1af" -- "ap\string_register\string_input\string_filter";
"0x7fa32ab7d1c9" -- "ap\string_register\string_output\string_filter";
"0x7fa32ab8c72c" -- "0x7fa32ab8aa50";
"0x7fa32ab8d374" -- "ap\string_state\string_query";
"0x7fa32ab8d4cd" -- "ap\string_log\string_error\string_";
"0x7fa32abc8e13" -- "0x7fa32ab902c0";
"0x7fa32abc90a7" -- "0x7fa32ab90120";
"0x7fa32abc90c6" -- "0x7fa32ab90120";
"0x7fa32abcb141" -- "0x7fa32ab90120";
"0x7fa32abcb173" -- "0x7fa32ab90120";
"0x7fa32abcb6aa" -- "0x7fa32ab90120";
"0x7fa32abcb7b3" -- "0x7fa32ab90120";
"0x7fa32abcb8b4" -- "0x7fa32ab90120";
"0x7fa32abcb92a" -- "0x7fa32ab90120";
"0x7fa32abee163" -- "0x7fa32ab90120";
"0x7fa32abee195" -- "0x7fa32ab90120";
"0x7fa32abef504" -- "0x7fa32ab90120";
"0x7fa32abef52f" -- "0x7fa32ab90120";
"0x7fa32abef6e1" -- "0x7fa32ab90120";
"0x7fa32abef70c" -- "0x7fa32ab90120";
"0x7fa32ac7da95" -- "0x7fa32ab90120";
"0x7fa32ac7dafa" -- "0x7fa32ab90120";
"0x7fa32ac7eacc" -- "0x7fa32ab90120";
"0x7fa32ac7eae7" -- "0x7fa32ab90120";
"0x7fa32ac7eb13" -- "0x7fa32ab90120";
"0x7fa32ac7eb5d" -- "0x7fa32ab90120";
"0x7fa32ac7f015" -- "0x7fa32ab90120";
"0x7fa32ac7f041" -- "0x7fa32ab90120";
"0x7fa32b15ea59" -- "ap\string_register\string_output\string_filter";
"0x7fa32b15ea6e" -- "ap\string_hook\string_process\string_connection";
"0x7fa32b15eecc" -- "ap\string_add\string_output\string_filter";
"0x7fa32b15eee0" -- "ap\string_add\string_input\string_filter";
"0x7fa32b15ef87" -- "ap\string_pass\string_brigade";
"0x7fa32b15f199" -- "0x7fa32b15efc0";
"0x7fa32b15f278" -- "ap\string_get\string_brigade";
"0x7fa32b15f2a8" -- "0x7fa32b15f050";
"0x7fa32b15f835" -- "ap\string_get\string_conn\string_socket";
"0x7fa32b568955" -- "ap\string_hook\string_fixups";
"0x7fa32b76c81a" -- "0x7fa32b76c4b0";
"0x7fa32b76c839" -- "0x7fa32b76c4b0";
"0x7fa32b9703ed" -- "ap\string_getword\string_conf";
"0x7fa32b970426" -- "ap\string_lookup\string_provider";
"0x7fa32b970479" -- "0x7fa32b96fc20";
"0x7fa32b9705ee" -- "0x7fa32b96fe20";
"0x7fa32b970b2d" -- "ap\string_hook\string_pre\string_config";
"0x7fa32b970b42" -- "ap\string_hook\string_check\string_config";
"0x7fa32b970bcc" -- "ap\string_register\string_auth\string_provider";
"0x7fa32b9710b7" -- "0x7fa32b96fca0";
"0x7fa32b97128b" -- "0x7fa32b970fb0";
"0x7fa32b9714a2" -- "0x7fa32b970fb0";
"0x7fa32b97180f" -- "0x7fa32b971440";
"0x7fa32b971a48" -- "0x7fa32b971870";
"0x7fa32bb74d99" -- "ap\string_register\string_auth\string_provider";
"0x7fa32bd773cf" -- "ap\string_register\string_auth\string_provider";
"0x7fa32bd7740e" -- "ap\string_hook\string_optional\string_fn\string_retrieve";
"0x7fa32bf7a2b3" -- "ap\string_register\string_auth\string_provider";
"0x7fa32c17db26" -- "ap\string_hook\string_check\string_authn";
"0x7fa32c37fecf" -- "ap\string_register\string_auth\string_provider";
"0x7fa32c37fee4" -- "ap\string_hook\string_optional\string_fn\string_retrieve";
"0x7fa32c7d0905" -- "check\string_header";
"0x7fa32c7d0905" -- "table\string_do\string_fn\string_check\string_lengths";
"0x7fa32c7d8a9e" -- "eor\string_bucket\string_cleanup";
"0x7fa32c7d8aee" -- "event\string_request\string_cleanup";
"0x7fa32c7d8d1e" -- "ptrans\string_pre\string_cleanup";
"0x7fa32c7d8d6e" -- "ap\string_pool\string_cleanup\string_set\string_null";
"0x7fa32c7d8d6e" -- "decrement\string_connection\string_count";
"0x7fa32c7e37c5" -- "check\string_signal";
"add\string_any\string_filter" -- "add\string_any\string_filter\string_handle";
"alloc\string_listener" -- "ap\string_check\string_cmd\string_context";
"ap\string_add\string_input\string_filter" -- "add\string_any\string_filter";
"ap\string_add\string_input\string_filter\string_handle" -- "add\string_any\string_filter\string_handle";
"ap\string_add\string_loaded\string_module" -- "ap\string_add\string_module";
"ap\string_add\string_module" -- "ap\string_add\string_module\string_commands";
"ap\string_add\string_module" -- "ap\string_malloc";
"ap\string_add\string_module" -- "ap\string_register\string_hooks";
"ap\string_add\string_module\string_commands" -- "ap\string_str\string_tolower";
"ap\string_add\string_output\string_filter" -- "add\string_any\string_filter";
"ap\string_add\string_output\string_filter\string_handle" -- "add\string_any\string_filter\string_handle";
"ap\string_array\string_str\string_contains" -- "ap\string_array\string_str\string_index";
"ap\string_bucket\string_eoc\string_create" -- "ap\string_bucket\string_eoc\string_make";
"ap\string_bucket\string_eor\string_create" -- "ap\string_bucket\string_eor\string_make";
"ap\string_build\string_config" -- "ap\string_build\string_config\string_sub";
"ap\string_build\string_config" -- "ap\string_varbuf\string_cfg\string_getline";
"ap\string_build\string_config" -- "ap\string_varbuf\string_free";
"ap\string_build\string_config" -- "ap\string_varbuf\string_init";
"ap\string_build\string_config\string_sub" -- "ap\string_find\string_command\string_in\string_modules";
"ap\string_build\string_config\string_sub" -- "ap\string_getword\string_conf";
"ap\string_build\string_config\string_sub" -- "ap\string_resolve\string_env";
"ap\string_build\string_cont\string_config" -- "ap\string_build\string_config\string_sub";
"ap\string_build\string_cont\string_config" -- "ap\string_varbuf\string_cfg\string_getline";
"ap\string_build\string_cont\string_config" -- "ap\string_varbuf\string_free";
"ap\string_build\string_cont\string_config" -- "ap\string_varbuf\string_init";
"ap\string_byterange\string_filter" -- "ap\string_pass\string_brigade";
"ap\string_byterange\string_filter" -- "ap\string_remove\string_output\string_filter";
"ap\string_calc\string_scoreboard\string_size" -- "ap\string_mpm\string_query";
"ap\string_cfg\string_closefile" -- "arr\string_elts\string_close";
"ap\string_cfg\string_closefile" -- "cfg\string_close";
"ap\string_cfg\string_getline" -- "cfg\string_trim\string_line";
"ap\string_cfg\string_getline\string_core" -- "arr\string_elts\string_getstr";
"ap\string_cfg\string_getline\string_core" -- "cfg\string_getstr";
"ap\string_check\string_cmd\string_context" -- "find\string_parent";
"ap\string_check\string_mpm" -- "ap\string_show\string_mpm";
"ap\string_content\string_length\string_filter" -- "ap\string_pass\string_brigade";
"ap\string_content\string_length\string_filter" -- "ap\string_set\string_content\string_length";
"ap\string_core\string_child\string_status" -- "ap\string_random\string_parent\string_after\string_fork";
"ap\string_core\string_input\string_filter" -- "ap\string_run\string_insert\string_network\string_bucket";
"ap\string_core\string_output\string_filter" -- "send\string_brigade\string_nonblocking";
"ap\string_core\string_output\string_filter" -- "setaside\string_remaining\string_output";
"ap\string_core\string_translate" -- "ap\string_document\string_root";
"ap\string_create\string_conn\string_config" -- "create\string_empty\string_config";
"ap\string_create\string_per\string_dir\string_config" -- "create\string_empty\string_config";
"ap\string_create\string_request\string_config" -- "create\string_empty\string_config";
"ap\string_create\string_scoreboard" -- "ap\string_calc\string_scoreboard\string_size";
"ap\string_die\string_r" -- "ap\string_finalize\string_request\string_protocol";
"ap\string_directory\string_walk" -- "ap\string_count\string_dirs";
"ap\string_directory\string_walk" -- "ap\string_make\string_dirstr\string_parent";
"ap\string_directory\string_walk" -- "ap\string_merge\string_per\string_dir\string_configs";
"ap\string_directory\string_walk" -- "ap\string_run\string_dirwalk\string_stat";
"ap\string_directory\string_walk" -- "core\string_opts\string_merge";
"ap\string_directory\string_walk" -- "prep\string_walk\string_cache";
"ap\string_discard\string_request\string_body" -- "ap\string_get\string_brigade";
"ap\string_exists\string_config\string_define" -- "ap\string_array\string_str\string_contains";
"ap\string_explode\string_recent\string_gmt" -- "cached\string_explode";
"ap\string_explode\string_recent\string_localtime" -- "cached\string_explode";
"ap\string_expr\string_init" -- "ap\string_hook\string_expr\string_lookup";
"ap\string_expr\string_init" -- "ap\string_hook\string_post\string_config";
"ap\string_file\string_walk" -- "prep\string_walk\string_cache";
"ap\string_finalize\string_request\string_protocol" -- "ap\string_discard\string_request\string_body";
"ap\string_find\string_command\string_in\string_modules" -- "ap\string_find\string_command";
"ap\string_fini\string_vhost\string_config" -- "ap\string_get\string_local\string_host";
"ap\string_fixup\string_virtual\string_hosts" -- "ap\string_core\string_reorder\string_directories";
"ap\string_flush\string_conn" -- "ap\string_shutdown\string_conn";
"ap\string_free\string_idle\string_pools" -- "ap\string_pop\string_pool";
"ap\string_get\string_brigade" -- "0x7fa32b15f0d0";
"ap\string_get\string_brigade" -- "ap\string_core\string_input\string_filter";
"ap\string_get\string_brigade" -- "ap\string_http\string_filter";
"ap\string_get\string_mime\string_headers\string_core" -- "ap\string_rgetline\string_core";
"ap\string_get\string_mime\string_headers\string_core" -- "ap\string_scan\string_http\string_field\string_content";
"ap\string_get\string_mime\string_headers\string_core" -- "ap\string_scan\string_http\string_token";
"ap\string_get\string_protocol" -- "ap\string_run\string_protocol\string_get";
"ap\string_get\string_status\string_line" -- "ap\string_index\string_of\string_response";
"ap\string_get\string_useragent\string_host" -- "ap\string_get\string_remote\string_host";
"ap\string_getword\string_conf" -- "substring\string_conf";
"ap\string_hook\string_check\string_authn" -- "ap\string_hook\string_check\string_user\string_id";
"ap\string_http\string_filter" -- "ap\string_get\string_limit\string_req\string_body";
"ap\string_http\string_header\string_filter" -- "ap\string_make\string_content\string_type";
"ap\string_http\string_header\string_filter" -- "ap\string_pass\string_brigade";
"ap\string_http\string_header\string_filter" -- "ap\string_remove\string_output\string_filter";
"ap\string_http\string_header\string_filter" -- "ap\string_set\string_keepalive";
"ap\string_http\string_header\string_filter" -- "basic\string_http\string_header";
"ap\string_http\string_header\string_filter" -- "basic\string_http\string_header\string_check";
"ap\string_http\string_outerror\string_filter" -- "ap\string_pass\string_brigade";
"ap\string_init\string_scoreboard" -- "ap\string_calc\string_scoreboard\string_size";
"ap\string_init\string_scoreboard" -- "ap\string_calloc";
"ap\string_init\string_vhost\string_config" -- "ap\string_hook\string_check\string_config";
"ap\string_internal\string_fast\string_redirect" -- "ap\string_remove\string_output\string_filter";
"ap\string_internal\string_fast\string_redirect" -- "ap\string_set\string_content\string_type";
"ap\string_internal\string_fast\string_redirect" -- "update\string_r\string_in\string_filters";
"ap\string_invoke\string_handler" -- "ap\string_run\string_handler";
"ap\string_invoke\string_handler" -- "ap\string_run\string_insert\string_filter";
"ap\string_invoke\string_handler" -- "invoke\string_filter\string_init";
"ap\string_log\string_error\string_" -- "log\string_error\string_core";
"ap\string_log\string_perror\string_" -- "log\string_error\string_core";
"ap\string_log\string_pid" -- "ap\string_log\string_perror\string_";
"ap\string_log\string_pid" -- "ap\string_server\string_root\string_relative";
"ap\string_make\string_etag" -- "etag\string_uint64\string_to\string_hex";
"ap\string_meets\string_conditions" -- "ap\string_condition\string_if\string_match";
"ap\string_meets\string_conditions" -- "ap\string_condition\string_if\string_modified\string_since";
"ap\string_meets\string_conditions" -- "ap\string_condition\string_if\string_none\string_match";
"ap\string_meets\string_conditions" -- "ap\string_condition\string_if\string_range";
"ap\string_meets\string_conditions" -- "ap\string_condition\string_if\string_unmodified\string_since";
"ap\string_merge\string_per\string_dir\string_configs" -- "0x7fa32b971af0";
"ap\string_merge\string_per\string_dir\string_configs" -- "merge\string_core\string_dir\string_configs";
"ap\string_method\string_registry\string_init" -- "register\string_one\string_method";
"ap\string_mpm\string_query" -- "ap\string_run\string_mpm\string_query";
"ap\string_mutex\string_register" -- "ap\string_mutex\string_init";
"ap\string_open\string_logs" -- "open\string_error\string_log";
"ap\string_pass\string_brigade" -- "0x7fa32b15ef40";
"ap\string_pass\string_brigade" -- "ap\string_byterange\string_filter";
"ap\string_pass\string_brigade" -- "ap\string_content\string_length\string_filter";
"ap\string_pass\string_brigade" -- "ap\string_core\string_output\string_filter";
"ap\string_pass\string_brigade" -- "ap\string_http\string_header\string_filter";
"ap\string_pass\string_brigade" -- "ap\string_http\string_outerror\string_filter";
"ap\string_prep\string_lingering\string_close" -- "ap\string_run\string_pre\string_close\string_connection";
"ap\string_prep\string_lingering\string_close" -- "ap\string_update\string_child\string_status";
"ap\string_process\string_async\string_request" -- "ap\string_die\string_r";
"ap\string_process\string_async\string_request" -- "ap\string_invoke\string_handler";
"ap\string_process\string_async\string_request" -- "ap\string_process\string_request\string_after\string_handler";
"ap\string_process\string_async\string_request" -- "ap\string_process\string_request\string_internal";
"ap\string_process\string_async\string_request" -- "ap\string_run\string_quick\string_handler";
"ap\string_process\string_async\string_request" -- "ap\string_time\string_process\string_request";
"ap\string_process\string_config\string_tree" -- "ap\string_walk\string_config";
"ap\string_process\string_http\string_async\string_connection" -- "ap\string_read\string_request";
"ap\string_process\string_http\string_async\string_connection" -- "ap\string_update\string_child\string_status\string_from\string_conn";
"ap\string_process\string_http\string_connection" -- "ap\string_update\string_child\string_status";
"ap\string_process\string_request\string_after\string_handler" -- "ap\string_bucket\string_eor\string_create";
"ap\string_process\string_request\string_after\string_handler" -- "ap\string_check\string_pipeline";
"ap\string_process\string_request\string_after\string_handler" -- "ap\string_pass\string_brigade";
"ap\string_process\string_request\string_after\string_handler" -- "ap\string_time\string_process\string_request";
"ap\string_process\string_request\string_internal" -- "ap\string_getparents";
"ap\string_process\string_request\string_internal" -- "ap\string_if\string_walk";
"ap\string_process\string_request\string_internal" -- "ap\string_location\string_walk";
"ap\string_process\string_request\string_internal" -- "ap\string_run\string_access\string_checker";
"ap\string_process\string_request\string_internal" -- "ap\string_run\string_access\string_checker\string_ex";
"ap\string_process\string_request\string_internal" -- "ap\string_run\string_fixups";
"ap\string_process\string_request\string_internal" -- "ap\string_run\string_force\string_authn";
"ap\string_process\string_request\string_internal" -- "ap\string_run\string_header\string_parser";
"ap\string_process\string_request\string_internal" -- "ap\string_run\string_map\string_to\string_storage";
"ap\string_process\string_request\string_internal" -- "ap\string_run\string_post\string_perdir\string_config";
"ap\string_process\string_request\string_internal" -- "ap\string_run\string_translate\string_name";
"ap\string_process\string_request\string_internal" -- "ap\string_run\string_type\string_checker";
"ap\string_process\string_request\string_internal" -- "ap\string_satisfies";
"ap\string_process\string_request\string_internal" -- "ap\string_unescape\string_url";
"ap\string_process\string_resource\string_config" -- "ap\string_cfg\string_closefile";
"ap\string_process\string_resource\string_config" -- "ap\string_pcfg\string_openfile";
"ap\string_queue\string_info\string_set\string_idle" -- "ap\string_push\string_pool";
"ap\string_queue\string_interrupt\string_all" -- "queue\string_interrupt";
"ap\string_queue\string_term" -- "ap\string_queue\string_interrupt\string_all";
"ap\string_read\string_config" -- "ap\string_check\string_mpm";
"ap\string_read\string_config" -- "ap\string_exists\string_config\string_define";
"ap\string_read\string_config" -- "ap\string_process\string_resource\string_config";
"ap\string_read\string_config" -- "process\string_command\string_config";
"ap\string_read\string_request" -- "ap\string_add\string_input\string_filter\string_handle";
"ap\string_read\string_request" -- "ap\string_create\string_request\string_config";
"ap\string_read\string_request" -- "ap\string_get\string_conn\string_socket";
"ap\string_read\string_request" -- "ap\string_get\string_mime\string_headers\string_core";
"ap\string_read\string_request" -- "ap\string_make\string_method\string_list";
"ap\string_read\string_request" -- "ap\string_run\string_create\string_request";
"ap\string_read\string_request" -- "ap\string_run\string_post\string_read\string_request";
"ap\string_read\string_request" -- "ap\string_run\string_pre\string_read\string_request";
"ap\string_read\string_request" -- "ap\string_update\string_vhost\string_from\string_headers";
"ap\string_recent\string_ctime\string_ex" -- "ap\string_explode\string_recent\string_localtime";
"ap\string_recent\string_rfc822\string_date" -- "ap\string_explode\string_recent\string_gmt";
"ap\string_register\string_auth\string_provider" -- "ap\string_register\string_provider";
"ap\string_register\string_hooks" -- "0x7fa32a523560";
"ap\string_register\string_hooks" -- "0x7fa32ab73290";
"ap\string_register\string_hooks" -- "0x7fa32b15ea10";
"ap\string_register\string_hooks" -- "0x7fa32b76c450";
"ap\string_register\string_hooks" -- "0x7fa32bb74d30";
"ap\string_register\string_hooks" -- "0x7fa32bf7a220";
"ap\string_register\string_hooks" -- "event\string_hooks";
"ap\string_register\string_hooks" -- "register\string_hooks";
"ap\string_register\string_input\string_filter" -- "register\string_filter";
"ap\string_register\string_log\string_hooks" -- "ap\string_register\string_errorlog\string_handler";
"ap\string_register\string_output\string_filter" -- "ap\string_register\string_output\string_filter\string_protocol";
"ap\string_register\string_output\string_filter\string_protocol" -- "register\string_filter";
"ap\string_remove\string_output\string_filter" -- "remove\string_any\string_filter";
"ap\string_rgetline\string_core" -- "ap\string_get\string_brigade";
"ap\string_run\string_access\string_checker" -- "0x7fa32ab849f0";
"ap\string_run\string_access\string_checker" -- "0x7fa32b76c700";
"ap\string_run\string_access\string_checker\string_ex" -- "0x7fa32b9717f0";
"ap\string_run\string_check\string_config" -- "0x7fa32b971a00";
"ap\string_run\string_check\string_config" -- "core\string_check\string_config";
"ap\string_run\string_check\string_config" -- "event\string_check\string_config";
"ap\string_run\string_check\string_config" -- "vhost\string_check\string_config";
"ap\string_run\string_child\string_status" -- "ap\string_core\string_child\string_status";
"ap\string_run\string_create\string_connection" -- "core\string_create\string_conn";
"ap\string_run\string_create\string_request" -- "core\string_create\string_req";
"ap\string_run\string_create\string_request" -- "http\string_create\string_request";
"ap\string_run\string_dirwalk\string_stat" -- "core\string_dirwalk\string_stat";
"ap\string_run\string_drop\string_privileges" -- "0x7fa32a931840";
"ap\string_run\string_fixups" -- "0x7fa32a11a510";
"ap\string_run\string_fixups" -- "0x7fa32a31e640";
"ap\string_run\string_fixups" -- "0x7fa32ab842e0";
"ap\string_run\string_fixups" -- "0x7fa32b568a70";
"ap\string_run\string_fixups" -- "core\string_override\string_type";
"ap\string_run\string_handler" -- "0x7fa32a527a60";
"ap\string_run\string_handler" -- "0x7fa32a72bb40";
"ap\string_run\string_handler" -- "core\string_upgrade\string_handler";
"ap\string_run\string_handler" -- "default\string_handler";
"ap\string_run\string_insert\string_filter" -- "0x7fa32af5b240";
"ap\string_run\string_insert\string_filter" -- "core\string_insert\string_filter";
"ap\string_run\string_insert\string_network\string_bucket" -- "core\string_insert\string_network\string_bucket";
"ap\string_run\string_map\string_to\string_storage" -- "ap\string_send\string_http\string_trace";
"ap\string_run\string_map\string_to\string_storage" -- "core\string_map\string_to\string_storage";
"ap\string_run\string_map\string_to\string_storage" -- "core\string_upgrade\string_storage";
"ap\string_run\string_map\string_to\string_storage" -- "http\string_send\string_options";
"ap\string_run\string_mpm" -- "event\string_run";
"ap\string_run\string_mpm\string_get\string_name" -- "event\string_get\string_name";
"ap\string_run\string_mpm\string_query" -- "event\string_query";
"ap\string_run\string_open\string_logs" -- "ap\string_open\string_logs";
"ap\string_run\string_open\string_logs" -- "event\string_open\string_logs";
"ap\string_run\string_optional\string_fn\string_retrieve" -- "0x7fa32bd77d60";
"ap\string_run\string_optional\string_fn\string_retrieve" -- "0x7fa32c380320";
"ap\string_run\string_optional\string_fn\string_retrieve" -- "core\string_optional\string_fn\string_retrieve";
"ap\string_run\string_post\string_config" -- "0x7fa32a72b6e0";
"ap\string_run\string_post\string_config" -- "0x7fa32ab7be90";
"ap\string_run\string_post\string_config" -- "0x7fa32bf7a320";
"ap\string_run\string_post\string_config" -- "ap\string_expr\string_post\string_config";
"ap\string_run\string_post\string_config" -- "core\string_post\string_config";
"ap\string_run\string_post\string_config" -- "event\string_post\string_config";
"ap\string_run\string_post\string_config" -- "http\string_post\string_config";
"ap\string_run\string_post\string_read\string_request" -- "0x7fa32ab868c0";
"ap\string_run\string_post\string_read\string_request" -- "0x7fa32b15e460";
"ap\string_run\string_post\string_read\string_request" -- "event\string_post\string_read\string_request";
"ap\string_run\string_pre\string_config" -- "0x7fa32ab73530";
"ap\string_run\string_pre\string_config" -- "0x7fa32b96fd40";
"ap\string_run\string_pre\string_config" -- "0x7fa32bf7ac60";
"ap\string_run\string_pre\string_config" -- "core\string_pre\string_config";
"ap\string_run\string_pre\string_config" -- "event\string_pre\string_config";
"ap\string_run\string_pre\string_connection" -- "0x7fa32ab73d00";
"ap\string_run\string_pre\string_connection" -- "core\string_pre\string_connection";
"ap\string_run\string_pre\string_connection" -- "event\string_pre\string_connection";
"ap\string_run\string_pre\string_mpm" -- "ap\string_create\string_scoreboard";
"ap\string_run\string_pre\string_read\string_request" -- "0x7fa32b15e530";
"ap\string_run\string_pre\string_read\string_request" -- "event\string_pre\string_read\string_request";
"ap\string_run\string_process\string_connection" -- "0x7fa32ab73690";
"ap\string_run\string_process\string_connection" -- "0x7fa32b15ede0";
"ap\string_run\string_process\string_connection" -- "ap\string_process\string_http\string_connection";
"ap\string_run\string_translate\string_name" -- "0x7fa32a11a810";
"ap\string_run\string_translate\string_name" -- "ap\string_core\string_translate";
"ap\string_run\string_type\string_checker" -- "do\string_nothing";
"ap\string_satisfies" -- "0x7fa32b76c1f0";
"ap\string_set\string_config\string_vectors" -- "0x7fa32b96fef0";
"ap\string_set\string_config\string_vectors" -- "create\string_core\string_dir\string_config";
"ap\string_set\string_etag" -- "ap\string_make\string_etag";
"ap\string_set\string_keepalive" -- "ap\string_find\string_token";
"ap\string_set\string_last\string_modified" -- "ap\string_rationalize\string_mtime";
"ap\string_setup\string_auth\string_internal" -- "ap\string_list\string_provider\string_names";
"ap\string_setup\string_listeners" -- "ap\string_get\string_server\string_protocol";
"ap\string_setup\string_listeners" -- "ap\string_set\string_server\string_protocol";
"ap\string_setup\string_prelinked\string_modules" -- "ap\string_add\string_module";
"ap\string_setup\string_prelinked\string_modules" -- "rebuild\string_conf\string_hash";
"ap\string_show\string_mpm" -- "ap\string_run\string_mpm\string_get\string_name";
"ap\string_shutdown\string_conn" -- "ap\string_bucket\string_eoc\string_create";
"ap\string_shutdown\string_conn" -- "ap\string_pass\string_brigade";
"ap\string_single\string_module\string_configure" -- "0x7fa32a11aed0";
"ap\string_single\string_module\string_configure" -- "0x7fa32a11af50";
"ap\string_single\string_module\string_configure" -- "0x7fa32a31ed90";
"ap\string_single\string_module\string_configure" -- "0x7fa32ab78b60";
"ap\string_single\string_module\string_configure" -- "0x7fa32af5b520";
"ap\string_single\string_module\string_configure" -- "0x7fa32b568740";
"ap\string_single\string_module\string_configure" -- "0x7fa32b76c8e0";
"ap\string_single\string_module\string_configure" -- "0x7fa32b96fef0";
"ap\string_single\string_module\string_configure" -- "0x7fa32bd77da0";
"ap\string_single\string_module\string_configure" -- "0x7fa32c17dc20";
"ap\string_single\string_module\string_configure" -- "0x7fa32c380360";
"ap\string_soak\string_end\string_container" -- "ap\string_getword\string_conf";
"ap\string_soak\string_end\string_container" -- "ap\string_soak\string_end\string_container";
"ap\string_soak\string_end\string_container" -- "ap\string_varbuf\string_cfg\string_getline";
"ap\string_soak\string_end\string_container" -- "ap\string_varbuf\string_free";
"ap\string_soak\string_end\string_container" -- "ap\string_varbuf\string_init";
"ap\string_start\string_lingering\string_close" -- "ap\string_flush\string_conn";
"ap\string_start\string_lingering\string_close" -- "ap\string_get\string_conn\string_socket";
"ap\string_start\string_lingering\string_close" -- "ap\string_prep\string_lingering\string_close";
"ap\string_sub\string_req\string_lookup\string_uri" -- "ap\string_sub\string_req\string_method\string_uri";
"ap\string_sub\string_req\string_method\string_uri" -- "ap\string_is\string_recursion\string_limit\string_exceeded";
"ap\string_sub\string_req\string_method\string_uri" -- "ap\string_make\string_dirstr\string_parent";
"ap\string_sub\string_req\string_method\string_uri" -- "ap\string_make\string_full\string_path";
"ap\string_sub\string_req\string_method\string_uri" -- "ap\string_method\string_number\string_of";
"ap\string_sub\string_req\string_method\string_uri" -- "ap\string_os\string_escape\string_path";
"ap\string_sub\string_req\string_method\string_uri" -- "ap\string_parse\string_uri";
"ap\string_sub\string_req\string_method\string_uri" -- "ap\string_process\string_request\string_internal";
"ap\string_sub\string_req\string_method\string_uri" -- "ap\string_run\string_quick\string_handler";
"ap\string_sub\string_req\string_method\string_uri" -- "make\string_sub\string_request";
"ap\string_unescape\string_url" -- "unescape\string_url";
"ap\string_update\string_child\string_status\string_from\string_indexes" -- "update\string_child\string_status\string_internal";
"ap\string_update\string_child\string_status" -- "update\string_child\string_status\string_internal";
"ap\string_update\string_vhost\string_given\string_ip" -- "find\string_default\string_server";
"ap\string_varbuf\string_cfg\string_getline" -- "ap\string_cfg\string_getline\string_core";
"ap\string_varbuf\string_init" -- "ap\string_varbuf\string_grow";
"ap\string_walk\string_config\string_sub" -- "ap\string_set\string_config\string_vectors";
"ap\string_walk\string_config\string_sub" -- "ap\string_str\string_tolower";
"ap\string_walk\string_config\string_sub" -- "invoke\string_cmd";
"basic\string_http\string_header" -- "ap\string_get\string_server\string_banner";
"basic\string_http\string_header" -- "ap\string_recent\string_rfc822\string_date";
"basic\string_http\string_header" -- "form\string_header\string_field";
"basic\string_http\string_header\string_check" -- "ap\string_get\string_status\string_line";
"check\string_errorlog\string_dir" -- "ap\string_make\string_dirstr\string_parent";
"check\string_errorlog\string_dir" -- "ap\string_server\string_root\string_relative";
"check\string_header" -- "ap\string_scan\string_http\string_field\string_content";
"check\string_header" -- "ap\string_scan\string_http\string_token";
"check\string_serverpath" -- "fix\string_hostname";
"child\string_main" -- "ap\string_fatal\string_signal\string_child\string_setup";
"child\string_main" -- "ap\string_reopen\string_scoreboard";
"child\string_main" -- "ap\string_run\string_drop\string_privileges";
"child\string_main" -- "clean\string_child\string_exit";
"child\string_main" -- "join\string_start\string_thread";
"child\string_main" -- "join\string_workers";
"child\string_main" -- "signal\string_threads";
"close\string_listeners" -- "ap\string_close\string_listeners\string_ex";
"close\string_listeners" -- "ap\string_free\string_idle\string_pools";
"close\string_listeners" -- "ap\string_update\string_child\string_status\string_from\string_indexes";
"close\string_listeners" -- "disable\string_listensocks";
"close\string_worker\string_sockets" -- "ap\string_queue\string_interrupt\string_all";
"close\string_worker\string_sockets" -- "wakeup\string_listener";
"core\string_child\string_init" -- "ap\string_mpm\string_query";
"core\string_create\string_conn" -- "ap\string_create\string_conn\string_config";
"core\string_create\string_conn" -- "ap\string_update\string_child\string_status";
"core\string_map\string_to\string_storage" -- "ap\string_directory\string_walk";
"core\string_map\string_to\string_storage" -- "ap\string_file\string_walk";
"core\string_optional\string_fn\string_retrieve" -- "ap\string_init\string_scoreboard";
"core\string_post\string_config" -- "ap\string_setup\string_auth\string_internal";
"core\string_post\string_config" -- "ap\string_setup\string_make\string_content\string_type";
"core\string_pre\string_config" -- "ap\string_mutex\string_init";
"core\string_pre\string_config" -- "mpm\string_common\string_pre\string_config";
"core\string_pre\string_connection" -- "ap\string_add\string_input\string_filter\string_handle";
"core\string_pre\string_connection" -- "ap\string_add\string_output\string_filter\string_handle";
"core\string_pre\string_connection" -- "init\string_config\string_defines";
"core\string_upgrade\string_handler" -- "ap\string_get\string_protocol\string_upgrades";
"default\string_handler" -- "ap\string_allow\string_standard\string_methods";
"default\string_handler" -- "ap\string_discard\string_request\string_body";
"default\string_handler" -- "ap\string_meets\string_conditions";
"default\string_handler" -- "ap\string_pass\string_brigade";
"default\string_handler" -- "ap\string_set\string_accept\string_ranges";
"default\string_handler" -- "ap\string_set\string_content\string_length";
"default\string_handler" -- "ap\string_set\string_etag";
"default\string_handler" -- "ap\string_set\string_last\string_modified";
"default\string_handler" -- "ap\string_update\string_mtime";
"dirsection" -- "ap\string_add\string_per\string_dir\string_conf";
"dirsection" -- "ap\string_check\string_cmd\string_context";
"dirsection" -- "ap\string_count\string_dirs";
"dirsection" -- "ap\string_create\string_per\string_dir\string_config";
"dirsection" -- "ap\string_getword\string_conf";
"dirsection" -- "ap\string_set\string_config\string_vectors";
"dirsection" -- "ap\string_walk\string_config";
"do\string_errorlog\string_default" -- "ap\string_escape\string_errorlog\string_item";
"do\string_errorlog\string_default" -- "cpystrn";
"do\string_errorlog\string_default" -- "log\string_ctime";
"do\string_errorlog\string_default" -- "log\string_header";
"do\string_errorlog\string_default" -- "log\string_loglevel";
"do\string_errorlog\string_default" -- "log\string_module\string_name";
"do\string_errorlog\string_default" -- "log\string_pid";
"do\string_errorlog\string_default" -- "log\string_tid";
"dso\string_load" -- "ap\string_server\string_root\string_relative";
"dump\string_vhost\string_config" -- "ap\string_exists\string_config\string_define";
"eor\string_bucket\string_cleanup" -- "ap\string_run\string_log\string_transaction";
"eor\string_bucket\string_cleanup" -- "ap\string_update\string_child\string_status";
"event\string_hooks" -- "ap\string_hook\string_mpm";
"event\string_hooks" -- "ap\string_hook\string_mpm\string_register\string_timed\string_callback";
"event\string_hooks" -- "ap\string_hook\string_open\string_logs";
"event\string_hooks" -- "ap\string_hook\string_post\string_read\string_request";
"event\string_hooks" -- "ap\string_hook\string_pre\string_config";
"event\string_hooks" -- "ap\string_hook\string_pre\string_connection";
"event\string_hooks" -- "ap\string_hook\string_pre\string_read\string_request";
"event\string_hooks" -- "ap\string_hook\string_protocol\string_switch";
"event\string_note\string_child\string_started" -- "ap\string_run\string_child\string_status";
"event\string_open\string_logs" -- "ap\string_duplicate\string_listeners";
"event\string_open\string_logs" -- "ap\string_setup\string_listeners";
"event\string_post\string_config" -- "ap\string_state\string_query";
"event\string_pre\string_config" -- "ap\string_exists\string_config\string_define";
"event\string_pre\string_config" -- "ap\string_retained\string_data\string_create";
"event\string_pre\string_config" -- "ap\string_retained\string_data\string_get";
"event\string_run" -- "ap\string_log\string_pid";
"event\string_run" -- "ap\string_run\string_pre\string_mpm";
"event\string_run" -- "set\string_signals";
"event\string_run" -- "startup\string_children";
"execute\string_now" -- "ap\string_add\string_node";
"execute\string_now" -- "ap\string_str\string_tolower";
"execute\string_now" -- "invoke\string_cmd";
"filesection" -- "ap\string_add\string_file\string_conf";
"filesection" -- "ap\string_check\string_cmd\string_context";
"filesection" -- "ap\string_create\string_per\string_dir\string_config";
"filesection" -- "ap\string_getword\string_conf";
"filesection" -- "ap\string_set\string_config\string_vectors";
"filesection" -- "ap\string_walk\string_config";
"find\string_module" -- "ap\string_find\string_linked\string_module";
"find\string_module" -- "ap\string_find\string_loaded\string_module\string_symbol";
"get\string_worker" -- "ap\string_queue\string_info\string_wait\string_for\string_idler";
"http\string_create\string_request" -- "ap\string_add\string_output\string_filter\string_handle";
"http\string_port" -- "ap\string_add\string_output\string_filter\string_handle";
"http\string_post\string_config" -- "ap\string_mpm\string_query";
"http\string_post\string_config" -- "ap\string_process\string_async\string_request";
"http\string_post\string_config" -- "ap\string_random\string_insecure\string_bytes";
"init\string_config\string_globals" -- "ap\string_init\string_vhost\string_config";
"invoke\string_cmd" -- "0x7fa32a119f00";
"invoke\string_cmd" -- "0x7fa32a31e510";
"invoke\string_cmd" -- "0x7fa32a931500";
"invoke\string_cmd" -- "0x7fa32a931590";
"invoke\string_cmd" -- "0x7fa32b970350";
"invoke\string_cmd" -- "ap\string_getword\string_conf";
"invoke\string_cmd" -- "ap\string_mpm\string_set\string_coredumpdir";
"invoke\string_cmd" -- "ap\string_set\string_listener";
"invoke\string_cmd" -- "dirsection";
"invoke\string_cmd" -- "filesection";
"invoke\string_cmd" -- "load\string_module";
"invoke\string_cmd" -- "set\string_document\string_root";
"invoke\string_cmd" -- "set\string_loglevel";
"invoke\string_cmd" -- "set\string_options";
"invoke\string_cmd" -- "set\string_override";
"invoke\string_cmd" -- "set\string_server\string_root";
"invoke\string_cmd" -- "set\string_server\string_string\string_slot";
"invoke\string_cmd" -- "start\string_ifmod";
"join\string_workers" -- "wakeup\string_listener";
"listener\string_thread" -- "ap\string_get\string_scoreboard\string_process";
"listener\string_thread" -- "ap\string_pop\string_pool";
"listener\string_thread" -- "ap\string_queue\string_info\string_get\string_idlers";
"listener\string_thread" -- "ap\string_queue\string_term";
"listener\string_thread" -- "ap\string_unixd\string_accept";
"listener\string_thread" -- "close\string_listeners";
"listener\string_thread" -- "get\string_worker";
"listener\string_thread" -- "process\string_timeout\string_queue";
"listener\string_thread" -- "unblock\string_signal";
"load\string_module" -- "ap\string_add\string_loaded\string_module";
"load\string_module" -- "ap\string_log\string_perror\string_";
"load\string_module" -- "dso\string_load";
"log\string_ctime" -- "ap\string_recent\string_ctime\string_ex";
"log\string_error\string_core" -- "ap\string_run\string_error\string_log";
"log\string_loglevel" -- "cpystrn";
"log\string_module\string_name" -- "ap\string_find\string_module\string_short\string_name";
"log\string_module\string_name" -- "cpystrn";
"log\string_tid" -- "ap\string_mpm\string_query";
"main" -- "ap\string_fini\string_vhost\string_config";
"main" -- "ap\string_fixup\string_virtual\string_hosts";
"main" -- "ap\string_process\string_config\string_tree";
"main" -- "ap\string_read\string_config";
"main" -- "ap\string_run\string_check\string_config";
"main" -- "ap\string_run\string_mpm";
"main" -- "ap\string_run\string_open\string_logs";
"main" -- "ap\string_run\string_optional\string_fn\string_retrieve";
"main" -- "ap\string_run\string_pre\string_config";
"main" -- "ap\string_setup\string_prelinked\string_modules";
"make\string_child" -- "child\string_main";
"make\string_child" -- "event\string_note\string_child\string_started";
"make\string_child" -- "set\string_signals";
"make\string_sub\string_request" -- "ap\string_add\string_output\string_filter\string_handle";
"make\string_sub\string_request" -- "ap\string_copy\string_method\string_list";
"make\string_sub\string_request" -- "ap\string_create\string_request\string_config";
"make\string_sub\string_request" -- "ap\string_make\string_method\string_list";
"make\string_sub\string_request" -- "ap\string_run\string_create\string_request";
"make\string_sub\string_request" -- "ap\string_set\string_sub\string_req\string_protocol";
"notify\string_resume" -- "ap\string_run\string_resume\string_connection";
"notify\string_suspend" -- "ap\string_queue\string_interrupt\string_all";
"notify\string_suspend" -- "ap\string_run\string_suspend\string_connection";
"open\string_error\string_log" -- "ap\string_server\string_root\string_relative";
"open\string_listeners" -- "ap\string_apply\string_accept\string_filter";
"open\string_listeners" -- "ap\string_close\string_listeners\string_ex";
"open\string_scoreboard" -- "ap\string_init\string_scoreboard";
"prep\string_walk\string_cache" -- "ap\string_get\string_request\string_note";
"process\string_command\string_config" -- "ap\string_build\string_config";
"process\string_command\string_config" -- "ap\string_cfg\string_closefile";
"process\string_command\string_config" -- "ap\string_pcfg\string_open\string_custom";
"process\string_lingering\string_close" -- "ap\string_push\string_pool";
"process\string_socket" -- "ap\string_core\string_output\string_filter";
"process\string_socket" -- "ap\string_create\string_sb\string_handle";
"process\string_socket" -- "ap\string_run\string_create\string_connection";
"process\string_socket" -- "ap\string_run\string_pre\string_connection";
"process\string_socket" -- "ap\string_run\string_process\string_connection";
"process\string_socket" -- "ap\string_update\string_child\string_status";
"process\string_socket" -- "ap\string_update\string_vhost\string_given\string_ip";
"process\string_socket" -- "start\string_lingering\string_close\string_common";
"ptrans\string_pre\string_cleanup" -- "notify\string_resume";
"read\string_request\string_line" -- "ap\string_method\string_number\string_of";
"read\string_request\string_line" -- "ap\string_parse\string_uri";
"read\string_request\string_line" -- "ap\string_rgetline\string_core";
"read\string_request\string_line" -- "ap\string_scan\string_http\string_token";
"read\string_request\string_line" -- "ap\string_scan\string_vchar\string_obstext";
"register\string_filter" -- "ap\string_str\string_tolower";
"register\string_filter" -- "trie\string_node\string_alloc";
"register\string_filter" -- "trie\string_node\string_link";
"register\string_hooks" -- "ap\string_hook\string_check\string_config";
"register\string_hooks" -- "ap\string_hook\string_child\string_init";
"register\string_hooks" -- "ap\string_hook\string_create\string_connection";
"register\string_hooks" -- "ap\string_hook\string_create\string_request";
"register\string_hooks" -- "ap\string_hook\string_default\string_port";
"register\string_hooks" -- "ap\string_hook\string_fixups";
"register\string_hooks" -- "ap\string_hook\string_http\string_scheme";
"register\string_hooks" -- "ap\string_hook\string_insert\string_filter";
"register\string_hooks" -- "ap\string_hook\string_insert\string_network\string_bucket";
"register\string_hooks" -- "ap\string_hook\string_map\string_to\string_storage";
"register\string_hooks" -- "ap\string_hook\string_optional\string_fn\string_retrieve";
"register\string_hooks" -- "ap\string_hook\string_post\string_config";
"register\string_hooks" -- "ap\string_hook\string_pre\string_connection";
"register\string_hooks" -- "ap\string_hook\string_type\string_checker";
"register\string_hooks" -- "ap\string_method\string_registry\string_init";
"register\string_hooks" -- "ap\string_register\string_config\string_hooks";
"register\string_hooks" -- "ap\string_register\string_log\string_hooks";
"register\string_hooks" -- "ap\string_register\string_output\string_filter";
"remove\string_empty\string_buckets" -- "ap\string_increment\string_counts";
"remove\string_empty\string_buckets" -- "eor\string_bucket\string_destroy";
"send\string_brigade\string_blocking" -- "send\string_brigade\string_nonblocking";
"send\string_brigade\string_nonblocking" -- "remove\string_empty\string_buckets";
"send\string_brigade\string_nonblocking" -- "writev\string_nonblocking";
"setaside\string_remaining\string_output" -- "ap\string_save\string_brigade";
"setaside\string_remaining\string_output" -- "remove\string_empty\string_buckets";
"set\string_document\string_root" -- "ap\string_check\string_cmd\string_context";
"set\string_document\string_root" -- "ap\string_is\string_directory";
"set\string_document\string_root" -- "ap\string_server\string_root\string_relative";
"set\string_loglevel" -- "ap\string_reset\string_module\string_loglevels";
"set\string_options" -- "ap\string_getword\string_conf";
"set\string_override" -- "ap\string_check\string_cmd\string_context";
"set\string_override" -- "ap\string_getword\string_conf";
"set\string_server\string_root" -- "ap\string_check\string_cmd\string_context";
"set\string_server\string_string\string_slot" -- "ap\string_check\string_cmd\string_context";
"start\string_ifmod" -- "ap\string_build\string_cont\string_config";
"start\string_ifmod" -- "ap\string_soak\string_end\string_container";
"start\string_ifmod" -- "find\string_module";
"start\string_lingering\string_close\string_blocking" -- "ap\string_start\string_lingering\string_close";
"start\string_lingering\string_close\string_common" -- "notify\string_suspend";
"start\string_threads" -- "ap\string_malloc";
"start\string_threads" -- "ap\string_update\string_child\string_status\string_from\string_indexes";
"startup\string_children" -- "make\string_child";
"trie\string_node\string_alloc" -- "trie\string_node\string_link";
"unload\string_module" -- "ap\string_single\string_module\string_configure";
"update\string_child\string_status\string_internal" -- "ap\string_get\string_protocol";
"update\string_child\string_status\string_internal" -- "ap\string_get\string_remote\string_host";
"update\string_child\string_status\string_internal" -- "ap\string_get\string_useragent\string_host";
"update\string_child\string_status\string_internal" -- "ap\string_mpm\string_query";
"wakeup\string_listener" -- "ap\string_queue\string_info\string_term";
"worker\string_thread" -- "ap\string_queue\string_info\string_set\string_idle";
"worker\string_thread" -- "ap\string_queue\string_pop\string_something";
"worker\string_thread" -- "ap\string_update\string_child\string_status\string_from\string_indexes";
}
