> 0x3d7081ed1d 0x430035 28774
> 0x43007c 0x434e44 28774
> 0x434e6a 0x459298 28774
< 0x434e6a 0x459298 28774
> 0x434e88 0x434bfc 28774
< 0x434e88 0x434bfc 28774
> 0x434e94 0x434eee 28774
> 0x434f14 0x434d44 28774
< 0x434f14 0x434d44 28774
< 0x434e94 0x434eee 28774
< 0x43007c 0x434e44 28774
> 0x430092 0x434f3e 28774
> 0x434f65 0x434d44 28774
< 0x434f65 0x434d44 28774
> 0x434f86 0x434d82 28774
< 0x434f86 0x434d82 28774
< 0x430092 0x434f3e 28774
> 0x4300bb 0x42edfe 28774
< 0x4300bb 0x42edfe 28774
> 0x4300cd 0x45658c 28774
> 0x4565b3 0x456640 28774
< 0x4565b3 0x456640 28774
> 0x4565f1 0x4566d2 28774
< 0x4565f1 0x4566d2 28774
> 0x456623 0x459404 28774
< 0x456623 0x459404 28774
< 0x4300cd 0x45658c 28774
> 0x43025f 0x42a30c 28774
< 0x43025f 0x42a30c 28774
> 0x430264 0x42f105 28774
> 0x42f24d 0x42f066 28774
< 0x42f24d 0x42f066 28774
> 0x42f24d 0x42f066 28774
< 0x42f24d 0x42f066 28774
> 0x42f24d 0x42f066 28774
< 0x42f24d 0x42f066 28774
> 0x42f24d 0x42f066 28774
< 0x42f24d 0x42f066 28774
> 0x42f24d 0x42f066 28774
< 0x42f24d 0x42f066 28774
> 0x42f24d 0x42f066 28774
< 0x42f24d 0x42f066 28774
> 0x42f24d 0x42f066 28774
< 0x42f24d 0x42f066 28774
> 0x42f24d 0x42f066 28774
< 0x42f24d 0x42f066 28774
> 0x42f24d 0x42f066 28774
< 0x42f24d 0x42f066 28774
> 0x42f24d 0x42f066 28774
< 0x42f24d 0x42f066 28774
> 0x42f24d 0x42f066 28774
< 0x42f24d 0x42f066 28774
> 0x42f24d 0x42f066 28774
< 0x42f24d 0x42f066 28774
> 0x42f24d 0x42f066 28774
< 0x42f24d 0x42f066 28774
> 0x42f24d 0x42f066 28774
< 0x42f24d 0x42f066 28774
> 0x42f24d 0x42f066 28774
< 0x42f24d 0x42f066 28774
> 0x42f24d 0x42f066 28774
< 0x42f24d 0x42f066 28774
> 0x42f24d 0x42f066 28774
< 0x42f24d 0x42f066 28774
> 0x42f24d 0x42f066 28774
< 0x42f24d 0x42f066 28774
> 0x42f24d 0x42f066 28774
< 0x42f24d 0x42f066 28774
> 0x42f24d 0x42f066 28774
< 0x42f24d 0x42f066 28774
> 0x42f24d 0x42f066 28774
< 0x42f24d 0x42f066 28774
> 0x42f24d 0x42f066 28774
< 0x42f24d 0x42f066 28774
> 0x42f24d 0x42f066 28774
< 0x42f24d 0x42f066 28774
> 0x42f24d 0x42f066 28774
< 0x42f24d 0x42f066 28774
> 0x42f24d 0x42f066 28774
< 0x42f24d 0x42f066 28774
> 0x42f24d 0x42f066 28774
< 0x42f24d 0x42f066 28774
> 0x42f24d 0x42f066 28774
< 0x42f24d 0x42f066 28774
> 0x42f24d 0x42f066 28774
< 0x42f24d 0x42f066 28774
> 0x42f24d 0x42f066 28774
< 0x42f24d 0x42f066 28774
> 0x42f24d 0x42f066 28774
< 0x42f24d 0x42f066 28774
> 0x42f24d 0x42f066 28774
< 0x42f24d 0x42f066 28774
> 0x42f24d 0x42f066 28774
< 0x42f24d 0x42f066 28774
> 0x42f24d 0x42f066 28774
< 0x42f24d 0x42f066 28774
> 0x42f24d 0x42f066 28774
< 0x42f24d 0x42f066 28774
> 0x42f24d 0x42f066 28774
< 0x42f24d 0x42f066 28774
> 0x42f24d 0x42f066 28774
< 0x42f24d 0x42f066 28774
> 0x42f24d 0x42f066 28774
< 0x42f24d 0x42f066 28774
> 0x42f24d 0x42f066 28774
< 0x42f24d 0x42f066 28774
> 0x42f24d 0x42f066 28774
< 0x42f24d 0x42f066 28774
> 0x42f24d 0x42f066 28774
< 0x42f24d 0x42f066 28774
> 0x42f24d 0x42f066 28774
< 0x42f24d 0x42f066 28774
> 0x42f24d 0x42f066 28774
< 0x42f24d 0x42f066 28774
> 0x42f24d 0x42f066 28774
< 0x42f24d 0x42f066 28774
> 0x42f24d 0x42f066 28774
< 0x42f24d 0x42f066 28774
> 0x42f24d 0x42f066 28774
< 0x42f24d 0x42f066 28774
> 0x42f24d 0x42f066 28774
< 0x42f24d 0x42f066 28774
> 0x42f24d 0x42f066 28774
< 0x42f24d 0x42f066 28774
> 0x42f24d 0x42f066 28774
< 0x42f24d 0x42f066 28774
> 0x42f24d 0x42f066 28774
< 0x42f24d 0x42f066 28774
> 0x42f24d 0x42f066 28774
< 0x42f24d 0x42f066 28774
> 0x42f24d 0x42f066 28774
< 0x42f24d 0x42f066 28774
> 0x42f24d 0x42f066 28774
< 0x42f24d 0x42f066 28774
> 0x42f24d 0x42f066 28774
< 0x42f24d 0x42f066 28774
> 0x42f24d 0x42f066 28774
< 0x42f24d 0x42f066 28774
> 0x42f24d 0x42f066 28774
< 0x42f24d 0x42f066 28774
> 0x42f24d 0x42f066 28774
< 0x42f24d 0x42f066 28774
> 0x42f24d 0x42f066 28774
< 0x42f24d 0x42f066 28774
> 0x42f24d 0x42f066 28774
< 0x42f24d 0x42f066 28774
> 0x42f24d 0x42f066 28774
< 0x42f24d 0x42f066 28774
> 0x42f24d 0x42f066 28774
< 0x42f24d 0x42f066 28774
> 0x42f24d 0x42f066 28774
< 0x42f24d 0x42f066 28774
> 0x42f24d 0x42f066 28774
< 0x42f24d 0x42f066 28774
> 0x42f24d 0x42f066 28774
< 0x42f24d 0x42f066 28774
> 0x42f24d 0x42f066 28774
< 0x42f24d 0x42f066 28774
> 0x42f24d 0x42f066 28774
< 0x42f24d 0x42f066 28774
> 0x42f24d 0x42f066 28774
< 0x42f24d 0x42f066 28774
> 0x42f24d 0x42f066 28774
< 0x42f24d 0x42f066 28774
> 0x42f24d 0x42f066 28774
< 0x42f24d 0x42f066 28774
> 0x42f24d 0x42f066 28774
< 0x42f24d 0x42f066 28774
> 0x42f24d 0x42f066 28774
< 0x42f24d 0x42f066 28774
> 0x42f24d 0x42f066 28774
< 0x42f24d 0x42f066 28774
> 0x42f24d 0x42f066 28774
< 0x42f24d 0x42f066 28774
> 0x42f24d 0x42f066 28774
< 0x42f24d 0x42f066 28774
> 0x42f24d 0x42f066 28774
< 0x42f24d 0x42f066 28774
> 0x42f24d 0x42f066 28774
< 0x42f24d 0x42f066 28774
< 0x430264 0x42f105 28774
> 0x43039e 0x45daf8 28774
> 0x45db4f 0x45d9d0 28774
> 0x45da4c 0x45c57a 28774
> 0x45c640 0x45c488 28774
< 0x45c640 0x45c488 28774
< 0x45da4c 0x45c57a 28774
< 0x45db4f 0x45d9d0 28774
< 0x43039e 0x45daf8 28774
> 0x4303d5 0x42aa66 28774
> 0x42ab0e 0x4420ae 28774
< 0x42ab0e 0x4420ae 28774
> 0x42ab73 0x42a77a 28774
> 0x42a796 0x42a60a 28774
< 0x42a796 0x42a60a 28774
> 0x42a7b7 0x42a6c5 28774
> 0x42a6e9 0x42a52e 28774
> 0x42a5c3 0x459368 28774
> 0x4593a2 0x45930f 28774
> 0x45933a 0x459113 28774
< 0x45933a 0x459113 28774
< 0x4593a2 0x45930f 28774
< 0x42a5c3 0x459368 28774
< 0x42a6e9 0x42a52e 28774
> 0x42a70a 0x4417b1 28774
< 0x42a70a 0x4417b1 28774
> 0x42a73c 0x4420ae 28774
< 0x42a73c 0x4420ae 28774
< 0x42a7b7 0x42a6c5 28774
< 0x42ab73 0x42a77a 28774
< 0x4303d5 0x42aa66 28774
> 0x430873 0x45daf8 28774
> 0x45db4f 0x45d9d0 28774
> 0x45da4c 0x45c57a 28774
> 0x45c640 0x45c488 28774
< 0x45c640 0x45c488 28774
< 0x45da4c 0x45c57a 28774
< 0x45db4f 0x45d9d0 28774
< 0x430873 0x45daf8 28774
> 0x430e22 0x42f2d8 28774
< 0x430e22 0x42f2d8 28774
